{
  "responseList":[
    {
        "input": [
            "Hello", "hello"
        ],
        "answer": "Hello it's good to meet you"
    },
    {
        "input":[
            "How are you"
        ],
        "answer": "I'm fine thank you"
    }
  ]
}